{
  "status": {
    "status_code": "0",
    "status_reason": "success"
  },
  "result": [
    {
      "type": 10,
      "can_delete": 0,
      "is_liked": false,
      "create_user": {
        "user_id": "w3078372",
        "nick_name": "👑蜜糖✨",
        "image_url": "https://sa.geilicdn.com/udc_ef9f2f4930ead204da5fc21abc7977ac.jpg",
        "member_id": 11931
      },
      "discuss": {
        "discuss_id": 2385,
        "content": "资生堂",
        "image_urls": [],
        "liked_num": 0,
        "comment_num": 0,
        "create_time": 1511017555000
      },
      "comments": [],
      "create_time_str": "4天前",
      "last_commented_time": "4天前更新"
    },
    {
      "type": 10,
      "can_delete": 0,
      "is_liked": false,
      "create_user": {
        "user_id": "1269862204",
        "nick_name": "Lacon",
        "image_url": "https://sa.geilicdn.com/udc_9028fa9091f0e3daed227cb4a57f29fe.jpg",
        "member_id": 8234
      },
      "discuss": {
        "discuss_id": 2384,
        "content": "求测小蜜缇修复唇膏",
        "image_urls": [
          "http://xixun.oss-cn-hangzhou.aliyuncs.com/head_icon/1bd8996e74f822c9b624155e1e9f457f.png"
        ],
        "liked_num": 0,
        "comment_num": 0,
        "create_time": 1510996976000
      },
      "comments": [],
      "create_time_str": "4天前",
      "last_commented_time": "4天前更新"
    },
    {
      "type": 10,
      "can_delete": 0,
      "is_liked": false,
      "create_user": {
        "user_id": "1283663219",
        "nick_name": "135****3286",
        "image_url": "https://sa.geilicdn.com/wx_default_headimg.jpg",
        "member_id": 11151
      },
      "discuss": {
        "discuss_id": 2383,
        "content": "求测，曼秀雷敦润唇膏依泉润唇膏，还有凡士林润唇膏。贺本清小甘菊润唇膏",
        "image_urls": [],
        "liked_num": 2,
        "comment_num": 0,
        "create_time": 1510987980000
      },
      "comments": [],
      "create_time_str": "4天前",
      "last_commented_time": "4天前更新"
    },
    {
      "type": 10,
      "can_delete": 0,
      "is_liked": false,
      "create_user": {
        "user_id": "1273365655",
        "nick_name": "torsjx",
        "image_url": "https://sa.geilicdn.com/udc_bd2021e9ec56b329762f683cc88291ae.jpg",
        "member_id": 10833
      },
      "discuss": {
        "discuss_id": 2381,
        "content": "求测lamer",
        "image_urls": [],
        "liked_num": 0,
        "comment_num": 0,
        "create_time": 1510981869000
      },
      "comments": [],
      "create_time_str": "5天前",
      "last_commented_time": "5天前更新"
    },
    {
      "type": 10,
      "can_delete": 0,
      "is_liked": false,
      "create_user": {
        "user_id": "1170721845",
        "nick_name": "Zoe",
        "image_url": "https://si.geilicdn.com/bj-wd-1170721845-1510897036495-290465788_400_400.jpg?w=400&h=400",
        "member_id": 11721
      },
      "discuss": {
        "discuss_id": 2369,
        "content": "Fancl.CPB",
        "image_urls": [],
        "liked_num": 0,
        "comment_num": 0,
        "create_time": 1510896867000
      },
      "comments": [],
      "create_time_str": "6天前",
      "last_commented_time": "6天前更新"
    },
    {
      "type": 10,
      "can_delete": 0,
      "is_liked": false,
      "create_user": {
        "user_id": "1285563118",
        "nick_name": "Chinanana",
        "image_url": "https://sa.geilicdn.com/udc_71e90db83156403c010b3f79756c94ee.jpg",
        "member_id": 11643
      },
      "discuss": {
        "discuss_id": 2365,
        "content": "求测百蕾士全部润唇膏，资生堂修护润唇膏，依泉特润，爱丽小屋，悦诗风吟，canmake",
        "image_urls": [],
        "liked_num": 3,
        "comment_num": 0,
        "create_time": 1510827551000
      },
      "comments": [],
      "create_time_str": "6天前",
      "last_commented_time": "6天前更新"
    },
    {
      "type": 10,
      "can_delete": 0,
      "is_liked": false,
      "create_user": {
        "user_id": "1252101633",
        "nick_name": "小熊猫酱",
        "image_url": "https://sa.geilicdn.com/udc_ab0f938ea5e7d5228e1adb7a918bfa29.jpg",
        "member_id": 5720
      },
      "discuss": {
        "discuss_id": 2364,
        "content": "DHC Molip 曼秀雷敦的自然蜂蜡 曼秀雷敦冰爽（含酒精防晒那个） 小蜜缇樱桃口味 澳大利亚木瓜膏",
        "image_urls": [],
        "liked_num": 2,
        "comment_num": 0,
        "create_time": 1510823131000
      },
      "comments": [],
      "create_time_str": "6天前",
      "last_commented_time": "6天前更新"
    },
    {
      "type": 10,
      "can_delete": 0,
      "is_liked": false,
      "create_user": {
        "user_id": "420903459",
        "nick_name": "宝贝囡囡",
        "image_url": "https://sa.geilicdn.com/uadc7e2caae7bfd4b771069040675b406_1430901607256.jpg",
        "member_id": 11451
      },
      "discuss": {
        "discuss_id": 2349,
        "content": "求测玫琳凯润唇膏！",
        "image_urls": [],
        "liked_num": 1,
        "comment_num": 0,
        "create_time": 1510815481000
      },
      "comments": [],
      "create_time_str": "6天前",
      "last_commented_time": "6天前更新"
    },
    {
      "type": 10,
      "can_delete": 0,
      "is_liked": false,
      "create_user": {
        "user_id": "323057184",
        "nick_name": "雅曼",
        "image_url": "https://sa.geilicdn.com/udc_b854dde4079945ff8f13a36a9ef2cbc1.jpg",
        "member_id": 9579
      },
      "discuss": {
        "discuss_id": 2339,
        "content": "求测芭乐雅润唇膏",
        "image_urls": [],
        "liked_num": 1,
        "comment_num": 0,
        "create_time": 1510756637000
      },
      "comments": [],
      "create_time_str": "7天前",
      "last_commented_time": "7天前更新"
    },
    {
      "type": 10,
      "can_delete": 0,
      "is_liked": false,
      "create_user": {
        "user_id": "1146683689",
        "nick_name": "来自火星的胖子虚的很",
        "image_url": "https://sa.geilicdn.com/udc_50b8038f670169d03ad28b551b121ef1.jpg",
        "member_id": 11512
      },
      "discuss": {
        "discuss_id": 2337,
        "content": "求测DHC、贺本清小甘菊唇膏、史密斯玫瑰花蕾膏、欧舒丹唇膏、dior变色唇膏、blistex小蓝罐、mistine变色唇膏、小蜜坊变色唇膏",
        "image_urls": [],
        "liked_num": 4,
        "comment_num": 0,
        "create_time": 1510753355000
      },
      "comments": [],
      "create_time_str": "7天前",
      "last_commented_time": "7天前更新"
    },
    {
      "type": 10,
      "can_delete": 0,
      "is_liked": false,
      "create_user": {
        "user_id": "w1378241",
        "nick_name": "136****0365",
        "image_url": "https://si.geilicdn.com/hz_dynamic_05320000015f2da220390a026860_750_750.jpeg",
        "member_id": 10631
      },
      "discuss": {
        "discuss_id": 2336,
        "content": "迪奥，纪梵希小羊皮",
        "image_urls": [],
        "liked_num": 1,
        "comment_num": 0,
        "create_time": 1510739648000
      },
      "comments": [],
      "create_time_str": "7天前",
      "last_commented_time": "7天前更新"
    },
    {
      "type": 10,
      "can_delete": 0,
      "is_liked": false,
      "create_user": {
        "user_id": "165425122",
        "nick_name": "yyyan",
        "image_url": "https://sa.geilicdn.com/udc_e2826f1c85931bcafd6ee9e9fdc51389.jpg",
        "member_id": 9081
      },
      "discuss": {
        "discuss_id": 2335,
        "content": "dhc啊！用了20多只了",
        "image_urls": [],
        "liked_num": 2,
        "comment_num": 0,
        "create_time": 1510738993000
      },
      "comments": [],
      "create_time_str": "7天前",
      "last_commented_time": "7天前更新"
    },
    {
      "type": 10,
      "can_delete": 0,
      "is_liked": false,
      "create_user": {
        "user_id": "743559991",
        "nick_name": "阿盲",
        "image_url": "https://sa.geilicdn.com/udc_09994b2d02f3e647d7cecf9b1df45ec8.jpg",
        "member_id": 7419
      },
      "discuss": {
        "discuss_id": 2332,
        "content": "求测施巴润唇膏",
        "image_urls": [],
        "liked_num": 0,
        "comment_num": 0,
        "create_time": 1510737219000
      },
      "comments": [],
      "create_time_str": "7天前",
      "last_commented_time": "7天前更新"
    },
    {
      "type": 10,
      "can_delete": 0,
      "is_liked": false,
      "create_user": {
        "user_id": "1282422538",
        "nick_name": "泉殿",
        "image_url": "https://sa.geilicdn.com/udc_66c9cc63f5ffed3726540e1da1b540f3.jpg",
        "member_id": 10936
      },
      "discuss": {
        "discuss_id": 2326,
        "content": "求测依泉，小蜜蜂",
        "image_urls": [],
        "liked_num": 0,
        "comment_num": 0,
        "create_time": 1510734936000
      },
      "comments": [],
      "create_time_str": "7天前",
      "last_commented_time": "7天前更新"
    },
    {
      "type": 10,
      "can_delete": 0,
      "is_liked": false,
      "create_user": {
        "user_id": "960359758",
        "nick_name": "一只圆圆酱",
        "image_url": "https://sa.geilicdn.com/udc_76d4dad96456cc26a76f4bfb7879c089.jpg",
        "member_id": 6893
      },
      "discuss": {
        "discuss_id": 2315,
        "content": "馥蕾诗啊啊啊\n馥蕾诗深度滋润那款",
        "image_urls": [],
        "liked_num": 1,
        "comment_num": 1,
        "create_time": 1510670776000
      },
      "comments": [
        {
          "id": 4895,
          "content": "我也想测馥蕾诗",
          "create_time_ms": 1510729878000,
          "create_time": "7天前",
          "user": {
            "user_id": "206707884",
            "nick_name": "随遇而安",
            "image_url": "https://sa.geilicdn.com/udc_47af27bdbcb20e1cb51fdd268aa7b37c.jpg",
            "member_id": 8892
          },
          "deleted": false,
          "auth_staus": false,
          "publish_url_status": false,
          "parent_comment": null
        }
      ],
      "create_time_str": "8天前",
      "last_commented_time": "7天前更新"
    },
    {
      "type": 10,
      "can_delete": 0,
      "is_liked": false,
      "create_user": {
        "user_id": "252575377",
        "nick_name": "QIU",
        "image_url": "https://sa.geilicdn.com/udc_d9c5feb8e3b09f8f69ad1aadca5a906e.jpg",
        "member_id": 10913
      },
      "discuss": {
        "discuss_id": 2314,
        "content": "澳洲那个红瓶的lucus木瓜霜！",
        "image_urls": [],
        "liked_num": 1,
        "comment_num": 0,
        "create_time": 1510670397000
      },
      "comments": [],
      "create_time_str": "8天前",
      "last_commented_time": "8天前更新"
    },
    {
      "type": 10,
      "can_delete": 0,
      "is_liked": false,
      "create_user": {
        "user_id": "469899425",
        "nick_name": "Lulu ",
        "image_url": "https://sa.geilicdn.com/udc_c7b420942983eab7d392abb9845f3b64.jpg",
        "member_id": 11185
      },
      "discuss": {
        "discuss_id": 2305,
        "content": "求测伊丽莎白雅顿",
        "image_urls": [],
        "liked_num": 1,
        "comment_num": 1,
        "create_time": 1510628245000
      },
      "comments": [
        {
          "id": 4888,
          "content": "这个也要",
          "create_time_ms": 1510662700000,
          "create_time": "8天前",
          "user": {
            "user_id": "1269643940",
            "nick_name": "啊哦",
            "image_url": "https://sa.geilicdn.com/udc_26e6462796659009b26e993eef67538f.jpg",
            "member_id": 11323
          },
          "deleted": false,
          "auth_staus": false,
          "publish_url_status": false,
          "parent_comment": null
        }
      ],
      "create_time_str": "9天前",
      "last_commented_time": "8天前更新"
    },
    {
      "type": 10,
      "can_delete": 0,
      "is_liked": false,
      "create_user": {
        "user_id": "1273433150",
        "nick_name": "番茄酱",
        "image_url": "https://sa.geilicdn.com/udc_675fe6fba1b750893bc17df1d528f979.jpg",
        "member_id": 11113
      },
      "discuss": {
        "discuss_id": 2289,
        "content": "求测曼秀雷敦无添加香精的蜂蜡润唇膏",
        "image_urls": [
          "https://si.geilicdn.com/bj-fangxinxuan-1273433150-1510573429212-258749222_1080_1440.jpg?w=1080&h=1440"
        ],
        "liked_num": 6,
        "comment_num": 1,
        "create_time": 1510573429000
      },
      "comments": [
        {
          "id": 4887,
          "content": "我也想评测这个",
          "create_time_ms": 1510662694000,
          "create_time": "8天前",
          "user": {
            "user_id": "1269643940",
            "nick_name": "啊哦",
            "image_url": "https://sa.geilicdn.com/udc_26e6462796659009b26e993eef67538f.jpg",
            "member_id": 11323
          },
          "deleted": false,
          "auth_staus": false,
          "publish_url_status": false,
          "parent_comment": null
        }
      ],
      "create_time_str": "9天前",
      "last_commented_time": "8天前更新"
    },
    {
      "type": 10,
      "can_delete": 0,
      "is_liked": false,
      "create_user": {
        "user_id": "856988253",
        "nick_name": "〆. ﹏小丁先生",
        "image_url": "https://sa.geilicdn.com/udc_93e4036da0e570536082f64d75695b97.jpg",
        "member_id": 9443
      },
      "discuss": {
        "discuss_id": 2303,
        "content": "fresh唇膏",
        "image_urls": [],
        "liked_num": 4,
        "comment_num": 0,
        "create_time": 1510626443000
      },
      "comments": [],
      "create_time_str": "9天前",
      "last_commented_time": "9天前更新"
    },
    {
      "type": 10,
      "can_delete": 0,
      "is_liked": false,
      "create_user": {
        "user_id": "324364727",
        "nick_name": "夏季雨季",
        "image_url": "https://wx.qlogo.cn/mmhead/Q3auHgzwzM58iaZgK6zd4HzTgMQ38ukfbpkgFKgtOkibG5FTXcew9u0w/0",
        "member_id": 9014
      },
      "discuss": {
        "discuss_id": 2291,
        "content": "求测科颜氏",
        "image_urls": [],
        "liked_num": 3,
        "comment_num": 0,
        "create_time": 1510576326000
      },
      "comments": [],
      "create_time_str": "9天前",
      "last_commented_time": "9天前更新"
    },
    {
      "type": 10,
      "can_delete": 0,
      "is_liked": false,
      "create_user": {
        "user_id": "861535965",
        "nick_name": "A1岚^_^港澳代购 &皮皮克纸尿裤",
        "image_url": "https://sa.geilicdn.com/udc_b07e720653e01a422fba43a53a490551.jpg",
        "member_id": 5534
      },
      "discuss": {
        "discuss_id": 2283,
        "content": "牌子都选好了吗？",
        "image_urls": [],
        "liked_num": 1,
        "comment_num": 0,
        "create_time": 1510561386000
      },
      "comments": [],
      "create_time_str": "9天前",
      "last_commented_time": "9天前更新"
    },
    {
      "type": 10,
      "can_delete": 0,
      "is_liked": false,
      "create_user": {
        "user_id": "241087377",
        "nick_name": "伊人",
        "image_url": "https://sa.geilicdn.com/udc_89427f21641c77b30d82daf0397e0602.jpg",
        "member_id": 10874
      },
      "discuss": {
        "discuss_id": 2282,
        "content": "求测DHC润唇膏  （滋润度   成分安全否 ）",
        "image_urls": [
          "https://si.geilicdn.com/bj-wd-241087377-1510561131299-1793071741_700_700.jpg?w=700&h=700"
        ],
        "liked_num": 6,
        "comment_num": 0,
        "create_time": 1510561131000
      },
      "comments": [],
      "create_time_str": "9天前",
      "last_commented_time": "9天前更新"
    },
    {
      "type": 10,
      "can_delete": 0,
      "is_liked": false,
      "create_user": {
        "user_id": "1276796660",
        "nick_name": "麦兜兜",
        "image_url": "https://sa.geilicdn.com/udc_3cc0eb7d151ddcbe798674a9d1dae93d.jpg",
        "member_id": 9668
      },
      "discuss": {
        "discuss_id": 2280,
        "content": "求测阿芙润唇膏",
        "image_urls": [],
        "liked_num": 2,
        "comment_num": 0,
        "create_time": 1510560251000
      },
      "comments": [],
      "create_time_str": "9天前",
      "last_commented_time": "9天前更新"
    }
  ]
}
